Clinical Coding of Patients with Kidney Disease • epocakir
…
aki_pt_data %>%
  mutate(aki = aki_staging(
    SCr = SCr_, bCr = bCr_, UO = UO_,
    dttm = dttm_, pt_id = pt_id_
  )) %>%
  select(pt_id_, SCr_:dttm_, aki)
#> # A tibble: 27 × 5
#>    pt_id_    SCr_    bCr_ dttm_               aki        
#>    <chr>  [mg/dl] [mg/dl] <dttm>              <ord>      
#>  1 <NA>       2       1.5 NA                  No AKI     
#>  2 <NA>       2.5     1.5 NA                  AKI Stage 1
#>  3 <NA>       3       1.5 NA                  AKI Stage 2
#>  4 <NA>       3.5     1.5 NA                  AKI Stage 2
#>  5 <NA>       4       1.5 NA                  AKI Stage 3
#>  6 <NA>       4.5     1.5 NA                  AKI Stage 3
#>  7 pt1        3.4    NA   2020-10-23 09:00:00 No AKI     
#>  8 pt1        3.9    NA   2020-10-25 21:00:00 No AKI     
#>  9 pt1        3      NA   2020-10-20 09:00:00 AKI Stage 1
#> 10 pt2        3.4    NA   2020-10-18 22:00:00 No AKI     
#> # ℹ 17 more rows

aki_pt_data %>%
  mutate(aki = aki_SCr(
    SCr = SCr_, dttm = dttm_, pt_id = pt_id_
  )) %>%
  select(pt_id_, SCr_:dttm_, aki)
#> # A tibble: 27 × 5
#>    pt_id_    SCr_    bCr_ dttm_               aki        
#>    <chr>  [mg/dl] [mg/dl] <dttm>              <ord>      
#>  1 <NA>       2       1.5 NA                  No AKI     
#>  2 <NA>       2.5     1.5 NA                  No AKI     
#>  3 <NA>       3       1.5 NA                  No AKI     
#>  4 <NA>       3.5     1.5 NA                  No AKI     
#>  5 <NA>       4       1.5 NA                  No AKI     
#>  6 <NA>       4.5     1.5 NA                  No AKI     
#>  7 pt1        3.4    NA   2020-10-23 09:00:00 No AKI     
#>  8 pt1        3.9    NA   2020-10-25 21:00:00 No AKI     
#>  9 pt1        3      NA   2020-10-20 09:00:00 AKI Stage 1
#> 10 pt2        3.4    NA   2020-10-18 22:00:00 No AKI     
#> # ℹ 17 more rows
…
eGFR_pt_data %>%
  dplyr::mutate(eGFR = eGFR(
    SCr = SCr_, SCysC = SCysC_,
    Age = Age_, height = height_, BUN = BUN_,
    male = male_, black = black_, pediatric = pediatric_
  )) %>%
  select(SCr_:pediatric_, eGFR)
#> # A tibble: 51 × 11
#>       SCr_ SCysC_    Age_ male_ black_ height_    BUN_ eGFR_calc_type_     eGFR_
#>    [mg/dl] [mg/L] [years] <lgl> <lgl>      [m] [mg/dl] <chr>               [mL/…
#>  1     0.5   NA        20 FALSE FALSE       NA      NA eGFR_adult_SCr      139. 
#>  2    NA      0.4      20 FALSE FALSE       NA      NA eGFR_adult_SCysC    162. 
#>  3     0.5    0.4      20 FALSE FALSE       NA      NA eGFR_adult_SCr_SCy… 167. 
#>  4     0.5   NA        30 FALSE TRUE        NA      NA eGFR_adult_SCr      150. 
#>  5    NA      0.4      30 FALSE TRUE        NA      NA eGFR_adult_SCysC    155. 
#>  6     0.5    0.4      30 FALSE TRUE        NA      NA eGFR_adult_SCr_SCy… 171. 
#>  7     0.5   NA        20 FALSE FALSE       NA      NA eGFR_adult_SCr      139. 
#>  8    NA      1.2      20 FALSE FALSE       NA      NA eGFR_adult_SCysC     66.8
#>  9     0.5    1.2      20 FALSE FALSE       NA      NA eGFR_adult_SCr_SCy…  96.4
#> 10     0.5   NA        30 FALSE TRUE        NA      NA eGFR_adult_SCr      150. 
#> # ℹ 41 more rows
#> # ℹ 2 more variables: pediatric_ <lgl>, eGFR [mL/(min*1.73m^2)]

eGFR_pt_data %>%
  dplyr::mutate(eGFR = eGFR_adult_SCr(
    SCr = SCr_, Age = Age_, male = male_, black = black_
  )) %>%
  select(SCr_:pediatric_, eGFR)
#> # A tibble: 51 × 11
#>       SCr_ SCysC_    Age_ male_ black_ height_    BUN_ eGFR_calc_type_     eGFR_
#>    [mg/dl] [mg/L] [years] <lgl> <lgl>      [m] [mg/dl] <chr>               [mL/…
#>  1     0.5   NA        20 FALSE FALSE       NA      NA eGFR_adult_SCr      139. 
#>  2    NA      0.4      20 FALSE FALSE       NA      NA eGFR_adult_SCysC    162. 
#>  3     0.5    0.4      20 FALSE FALSE       NA      NA eGFR_adult_SCr_SCy… 167. 
#>  4     0.5   NA        30 FALSE TRUE        NA      NA eGFR_adult_SCr      150. 
#>  5    NA      0.4      30 FALSE TRUE        NA      NA eGFR_adult_SCysC    155. 
#>  6     0.5    0.4      30 FALSE TRUE        NA      NA eGFR_adult_SCr_SCy… 171. 
#>  7     0.5   NA        20 FALSE FALSE       NA      NA eGFR_adult_SCr      139. 
#>  8    NA      1.2      20 FALSE FALSE       NA      NA eGFR_adult_SCysC     66.8
#>  9     0.5    1.2      20 FALSE FALSE       NA      NA eGFR_adult_SCr_SCy…  96.4
#> 10     0.5   NA        30 FALSE TRUE        NA      NA eGFR_adult_SCr      150. 
#> # ℹ 41 more rows
#> # ℹ 2 more variables: pediatric_ <lgl>, eGFR [mL/(min*1.73m^2)]
…
