AKI Patient Data — aki_pt_data • epocakir
…
    Source: R/data-aki.R
    aki_pt_data.Rd

    A sample dataset to demonstrate calculating AKI with epocakir

aki_pt_data

    Format

    An object of class tbl_df (inherits from tbl, data.frame) with 27 rows and 7 columns.

    Examples

aki_pt_data
#> # A tibble: 27 × 7
#>       SCr_    bCr_ pt_id_ dttm_                   UO_ aki_staging_type aki_     
#>    [mg/dl] [mg/dl] <chr>  <dttm>              [ml/kg] <chr>            <ord>    
#>  1     2       1.5 NA     NA                       NA aki_bCr          No AKI   
#>  2     2.5     1.5 NA     NA                       NA aki_bCr          AKI Stag…
#>  3     3       1.5 NA     NA                       NA aki_bCr          AKI Stag…
#>  4     3.5     1.5 NA     NA                       NA aki_bCr          AKI Stag…
#>  5     4       1.5 NA     NA                       NA aki_bCr          AKI Stag…
#>  6     4.5     1.5 NA     NA                       NA aki_bCr          AKI Stag…
#>  7     3.4    NA   pt1    2020-10-23 09:00:00      NA aki_SCr          No AKI   
#>  8     3.9    NA   pt1    2020-10-25 21:00:00      NA aki_SCr          No AKI   
#>  9     3      NA   pt1    2020-10-20 09:00:00      NA aki_SCr          AKI Stag…
#> 10     3.4    NA   pt2    2020-10-18 22:00:00      NA aki_SCr          No AKI   
#> # ℹ 17 more rows
…
