eGFR Patient Data — eGFR_pt_data • epocakir
…
    Source: R/data-eGFR.R
    eGFR_pt_data.Rd

    A sample dataset to demonstrate calculating eGFR with epocakir

eGFR_pt_data

    Format

    An object of class tbl_df (inherits from tbl, data.frame) with 51 rows and 10 columns.

    Examples

eGFR_pt_data
#> # A tibble: 51 × 10
#>       SCr_ SCysC_    Age_ male_ black_ height_    BUN_ eGFR_calc…¹ eGFR_ pedia…²
#>    [mg/dl] [mg/L] [years] <lgl> <lgl>      [m] [mg/dl] <chr>       [mL/… <lgl>  
#>  1     0.5   NA        20 FALSE FALSE       NA      NA eGFR_adult… 139.  FALSE  
#>  2    NA      0.4      20 FALSE FALSE       NA      NA eGFR_adult… 162.  FALSE  
#>  3     0.5    0.4      20 FALSE FALSE       NA      NA eGFR_adult… 167.  FALSE  
#>  4     0.5   NA        30 FALSE TRUE        NA      NA eGFR_adult… 150.  FALSE  
#>  5    NA      0.4      30 FALSE TRUE        NA      NA eGFR_adult… 155.  FALSE  
#>  6     0.5    0.4      30 FALSE TRUE        NA      NA eGFR_adult… 171.  FALSE  
#>  7     0.5   NA        20 FALSE FALSE       NA      NA eGFR_adult… 139.  FALSE  
#>  8    NA      1.2      20 FALSE FALSE       NA      NA eGFR_adult…  66.8 FALSE  
#>  9     0.5    1.2      20 FALSE FALSE       NA      NA eGFR_adult…  96.4 FALSE  
#> 10     0.5   NA        30 FALSE TRUE        NA      NA eGFR_adult… 150.  FALSE  
#> # … with 41 more rows, and abbreviated variable names ¹​eGFR_calc_type_,
#> #   ²​pediatric_
…
