eGFR Pediatric SCr, Height and BUN — eGFR_child_SCr_BUN • epocakir
…
eGFR_pt_data %>%
  dplyr::mutate(eGFR = eGFR_child_SCr_BUN(
    SCr = SCr_, height = height_, BUN = BUN_,
  ))
#> # A tibble: 51 × 11
#>       SCr_ SCysC_    Age_ male_ black_ height_  BUN_ eGFR_…¹ eGFR_ pedia…²  eGFR
#>    [mg/dl] [mg/L] [years] <lgl> <lgl>      [m] [mg/… <chr>   [mL/… <lgl>   [mL/…
#>  1     0.5   NA        20 FALSE FALSE       NA    NA eGFR_a… 139.  FALSE      NA
#>  2    NA      0.4      20 FALSE FALSE       NA    NA eGFR_a… 162.  FALSE      NA
#>  3     0.5    0.4      20 FALSE FALSE       NA    NA eGFR_a… 167.  FALSE      NA
#>  4     0.5   NA        30 FALSE TRUE        NA    NA eGFR_a… 150.  FALSE      NA
#>  5    NA      0.4      30 FALSE TRUE        NA    NA eGFR_a… 155.  FALSE      NA
#>  6     0.5    0.4      30 FALSE TRUE        NA    NA eGFR_a… 171.  FALSE      NA
#>  7     0.5   NA        20 FALSE FALSE       NA    NA eGFR_a… 139.  FALSE      NA
#>  8    NA      1.2      20 FALSE FALSE       NA    NA eGFR_a…  66.8 FALSE      NA
#>  9     0.5    1.2      20 FALSE FALSE       NA    NA eGFR_a…  96.4 FALSE      NA
#> 10     0.5   NA        30 FALSE TRUE        NA    NA eGFR_a… 150.  FALSE      NA
#> # … with 41 more rows, and abbreviated variable names ¹​eGFR_calc_type_,
#> #   ²​pediatric_
…
