eGFR 2012 CKD-EPI creatinine-cystatin C equation — eGFR_adult_SCr_SCysC • epocakir
…
eGFR_pt_data %>%
  dplyr::mutate(eGFR = eGFR_adult_SCr_SCysC(
    SCr = SCr_, SCysC = SCysC_,
    Age = Age_, male = male_, black = black_
  ))
#> # A tibble: 51 × 11
#>       SCr_ SCysC_    Age_ male_ black_ height_    BUN_ eGFR_calc_type_     eGFR_
#>    [mg/dl] [mg/L] [years] <lgl> <lgl>      [m] [mg/dl] <chr>               [mL/…
#>  1     0.5   NA        20 FALSE FALSE       NA      NA eGFR_adult_SCr      139. 
#>  2    NA      0.4      20 FALSE FALSE       NA      NA eGFR_adult_SCysC    162. 
#>  3     0.5    0.4      20 FALSE FALSE       NA      NA eGFR_adult_SCr_SCy… 167. 
#>  4     0.5   NA        30 FALSE TRUE        NA      NA eGFR_adult_SCr      150. 
#>  5    NA      0.4      30 FALSE TRUE        NA      NA eGFR_adult_SCysC    155. 
#>  6     0.5    0.4      30 FALSE TRUE        NA      NA eGFR_adult_SCr_SCy… 171. 
#>  7     0.5   NA        20 FALSE FALSE       NA      NA eGFR_adult_SCr      139. 
#>  8    NA      1.2      20 FALSE FALSE       NA      NA eGFR_adult_SCysC     66.8
#>  9     0.5    1.2      20 FALSE FALSE       NA      NA eGFR_adult_SCr_SCy…  96.4
#> 10     0.5   NA        30 FALSE TRUE        NA      NA eGFR_adult_SCr      150. 
#> # ℹ 41 more rows
#> # ℹ 2 more variables: pediatric_ <lgl>, eGFR [mL/1.73m2/min]
…
